<?xml version="1.0" encoding="UTF-8" standalone="no"?>
<!-- Created with Inkscape (http://www.inkscape.org/) -->

<svg
   xmlns:dc="http://purl.org/dc/elements/1.1/"
   xmlns:cc="http://creativecommons.org/ns#"
   xmlns:rdf="http://www.w3.org/1999/02/22-rdf-syntax-ns#"
   xmlns:svg="http://www.w3.org/2000/svg"
   xmlns="http://www.w3.org/2000/svg"
   xmlns:sodipodi="http://sodipodi.sourceforge.net/DTD/sodipodi-0.dtd"
   xmlns:inkscape="http://www.inkscape.org/namespaces/inkscape"
   width="600"
   height="480"
   viewBox="0 0 158.75 127"
   version="1.1"
   id="svg8"
   inkscape:version="0.92.4 5da689c313, 2019-01-14"
   sodipodi:docname="03-template-inheritance.svg"
   inkscape:export-filename="/home/epsi/Documents/svg-inheritance/03-template-inheritance.png"
   inkscape:export-xdpi="96"
   inkscape:export-ydpi="96">
  <defs
     id="defs2">
    <inkscape:path-effect
       effect="spiro"
       id="path-effect1370"
       is_visible="true" />
    <inkscape:path-effect
       is_visible="true"
       id="path-effect1366"
       effect="spiro" />
    <inkscape:path-effect
       is_visible="true"
       id="path-effect1362"
       effect="spiro" />
    <inkscape:path-effect
       effect="spiro"
       id="path-effect1358"
       is_visible="true" />
    <inkscape:path-effect
       is_visible="true"
       id="path-effect1354"
       effect="spiro" />
    <inkscape:path-effect
       effect="spiro"
       id="path-effect1350"
       is_visible="true" />
    <inkscape:path-effect
       effect="spiro"
       id="path-effect1346"
       is_visible="true" />
    <inkscape:path-effect
       is_visible="true"
       id="path-effect1342"
       effect="spiro" />
    <inkscape:path-effect
       is_visible="true"
       id="path-effect1338"
       effect="spiro" />
    <inkscape:path-effect
       effect="spiro"
       id="path-effect1334"
       is_visible="true" />
    <inkscape:path-effect
       effect="spiro"
       id="path-effect1330"
       is_visible="true" />
    <inkscape:path-effect
       is_visible="true"
       id="path-effect1326"
       effect="spiro" />
    <inkscape:path-effect
       effect="spiro"
       id="path-effect1298"
       is_visible="true" />
    <inkscape:path-effect
       is_visible="true"
       id="path-effect1294"
       effect="spiro" />
    <inkscape:path-effect
       is_visible="true"
       id="path-effect1290"
       effect="spiro" />
    <inkscape:path-effect
       effect="spiro"
       id="path-effect1286"
       is_visible="true" />
    <inkscape:path-effect
       is_visible="true"
       id="path-effect1282"
       effect="spiro" />
    <inkscape:path-effect
       is_visible="true"
       id="path-effect1278"
       effect="spiro" />
    <inkscape:path-effect
       effect="spiro"
       id="path-effect1274"
       is_visible="true" />
    <inkscape:path-effect
       is_visible="true"
       id="path-effect1185"
       effect="spiro" />
    <inkscape:path-effect
       is_visible="true"
       id="path-effect1165"
       effect="spiro" />
    <inkscape:path-effect
       effect="spiro"
       id="path-effect1161"
       is_visible="true" />
    <inkscape:path-effect
       is_visible="true"
       id="path-effect1157"
       effect="spiro" />
    <inkscape:path-effect
       is_visible="true"
       id="path-effect1153"
       effect="spiro" />
    <inkscape:path-effect
       effect="spiro"
       id="path-effect1149"
       is_visible="true" />
    <inkscape:path-effect
       effect="spiro"
       id="path-effect1145"
       is_visible="true" />
    <inkscape:path-effect
       is_visible="true"
       id="path-effect1141"
       effect="spiro" />
    <inkscape:path-effect
       effect="spiro"
       id="path-effect1137"
       is_visible="true" />
    <inkscape:path-effect
       effect="spiro"
       id="path-effect1133"
       is_visible="true" />
    <inkscape:path-effect
       is_visible="true"
       id="path-effect1129"
       effect="spiro" />
    <inkscape:path-effect
       effect="spiro"
       id="path-effect1125"
       is_visible="true" />
    <inkscape:path-effect
       effect="spiro"
       id="path-effect1121"
       is_visible="true" />
    <inkscape:path-effect
       is_visible="true"
       id="path-effect1117"
       effect="spiro" />
    <inkscape:path-effect
       effect="spiro"
       id="path-effect1113"
       is_visible="true" />
    <inkscape:path-effect
       effect="spiro"
       id="path-effect1109"
       is_visible="true" />
    <inkscape:path-effect
       is_visible="true"
       id="path-effect1105"
       effect="spiro" />
    <inkscape:path-effect
       effect="spiro"
       id="path-effect1101"
       is_visible="true" />
    <inkscape:path-effect
       is_visible="true"
       id="path-effect1093"
       effect="spiro" />
    <inkscape:path-effect
       effect="spiro"
       id="path-effect1089"
       is_visible="true" />
    <inkscape:path-effect
       is_visible="true"
       id="path-effect1085"
       effect="spiro" />
    <inkscape:path-effect
       is_visible="true"
       id="path-effect1081"
       effect="spiro" />
    <inkscape:path-effect
       effect="spiro"
       id="path-effect1077"
       is_visible="true" />
    <inkscape:path-effect
       is_visible="true"
       id="path-effect1073"
       effect="spiro" />
    <inkscape:path-effect
       effect="spiro"
       id="path-effect1069"
       is_visible="true" />
    <inkscape:path-effect
       is_visible="true"
       id="path-effect1065"
       effect="spiro" />
    <inkscape:path-effect
       effect="spiro"
       id="path-effect1061"
       is_visible="true" />
    <inkscape:path-effect
       effect="spiro"
       id="path-effect1057"
       is_visible="true" />
    <inkscape:path-effect
       is_visible="true"
       id="path-effect1053"
       effect="spiro" />
    <inkscape:path-effect
       effect="spiro"
       id="path-effect1029"
       is_visible="true" />
    <inkscape:path-effect
       is_visible="true"
       id="path-effect5197"
       effect="spiro" />
    <inkscape:path-effect
       effect="spiro"
       id="path-effect5195"
       is_visible="true" />
    <inkscape:path-effect
       effect="spiro"
       id="path-effect5008"
       is_visible="true" />
    <inkscape:path-effect
       effect="spiro"
       id="path-effect5012"
       is_visible="true" />
    <inkscape:path-effect
       is_visible="true"
       id="path-effect308"
       effect="spiro" />
    <inkscape:path-effect
       effect="spiro"
       id="path-effect220"
       is_visible="true" />
  </defs>
  <sodipodi:namedview
     id="base"
     pagecolor="#ffffff"
     bordercolor="#666666"
     borderopacity="1.0"
     inkscape:pageopacity="0.0"
     inkscape:pageshadow="2"
     inkscape:zoom="1.35625"
     inkscape:cx="179.21999"
     inkscape:cy="264.43288"
     inkscape:document-units="px"
     inkscape:current-layer="layer4"
     showgrid="false"
     units="px"
     inkscape:window-width="1826"
     inkscape:window-height="902"
     inkscape:window-x="40"
     inkscape:window-y="64"
     inkscape:window-maximized="0"
     inkscape:pagecheckerboard="true" />
  <metadata
     id="metadata5">
    <rdf:RDF>
      <cc:Work
         rdf:about="">
        <dc:format>image/svg+xml</dc:format>
        <dc:type
           rdf:resource="http://purl.org/dc/dcmitype/StillImage" />
        <dc:title />
      </cc:Work>
    </rdf:RDF>
  </metadata>
  <g
     inkscape:groupmode="layer"
     id="layer2"
     inkscape:label="Background"
     sodipodi:insensitive="true">
    <rect
       style="opacity:1;fill:#ffffff;fill-opacity:1;stroke:none;stroke-width:0.7532143;stroke-miterlimit:4;stroke-dasharray:none;stroke-opacity:1"
       id="rect981"
       width="158.75"
       height="127"
       x="0"
       y="-5.6843419e-14" />
  </g>
  <g
     inkscape:groupmode="layer"
     id="layer3"
     inkscape:label="Balancer"
     sodipodi:insensitive="true">
    <rect
       transform="translate(0,-169.99999)"
       style="opacity:1;fill:#2196f3;fill-opacity:1;stroke:none;stroke-width:0.28523257;stroke-miterlimit:4;stroke-dasharray:none;stroke-opacity:1"
       id="rect39"
       width="127"
       height="5.2916665"
       x="0"
       y="318.16666" />
    <rect
       transform="translate(0,-169.99999)"
       y="312.875"
       x="0"
       height="5.2916665"
       width="63.5"
       id="rect850"
       style="opacity:1;fill:#42a5f5;fill-opacity:1;stroke:none;stroke-width:0.20168988;stroke-miterlimit:4;stroke-dasharray:none;stroke-opacity:1" />
    <rect
       transform="translate(0,-169.99999)"
       style="opacity:1;fill:#1e88e5;fill-opacity:1;stroke:none;stroke-width:0.20168988;stroke-miterlimit:4;stroke-dasharray:none;stroke-opacity:1"
       id="rect852"
       width="63.5"
       height="5.2916665"
       x="63.5"
       y="312.875" />
    <rect
       transform="translate(0,-169.99999)"
       style="opacity:1;fill:#64b5f6;fill-opacity:1;stroke:none;stroke-width:0.14261629;stroke-miterlimit:4;stroke-dasharray:none;stroke-opacity:1"
       id="rect868"
       width="31.75"
       height="5.2916665"
       x="0"
       y="307.58334" />
    <rect
       transform="translate(0,-169.99999)"
       y="307.58334"
       x="31.75"
       height="5.2916665"
       width="31.75"
       id="rect872"
       style="opacity:1;fill:#2196f3;fill-opacity:1;stroke:none;stroke-width:0.14261629;stroke-miterlimit:4;stroke-dasharray:none;stroke-opacity:1" />
    <rect
       transform="translate(0,-169.99999)"
       y="307.58334"
       x="63.5"
       height="5.2916665"
       width="31.75"
       id="rect918"
       style="opacity:1;fill:#2196f3;fill-opacity:1;stroke:none;stroke-width:0.14261629;stroke-miterlimit:4;stroke-dasharray:none;stroke-opacity:1" />
    <rect
       transform="translate(0,-169.99999)"
       style="opacity:1;fill:#1976d2;fill-opacity:1;stroke:none;stroke-width:0.14261629;stroke-miterlimit:4;stroke-dasharray:none;stroke-opacity:1"
       id="rect920"
       width="31.75"
       height="5.2916665"
       x="95.25"
       y="307.58334" />
    <rect
       transform="translate(0,-169.99999)"
       y="302.29166"
       x="0"
       height="5.2916665"
       width="15.875"
       id="rect948"
       style="opacity:1;fill:#90caf9;fill-opacity:1;stroke:none;stroke-width:0.10084494;stroke-miterlimit:4;stroke-dasharray:none;stroke-opacity:1" />
    <rect
       transform="translate(0,-169.99999)"
       style="opacity:1;fill:#42a5f5;fill-opacity:1;stroke:none;stroke-width:0.10084494;stroke-miterlimit:4;stroke-dasharray:none;stroke-opacity:1"
       id="rect950"
       width="15.875"
       height="5.2916665"
       x="15.875"
       y="302.29166" />
    <rect
       transform="translate(0,-169.99999)"
       y="302.29166"
       x="31.75"
       height="5.2916665"
       width="15.875"
       id="rect952"
       style="opacity:1;fill:#42a5f5;fill-opacity:1;stroke:none;stroke-width:0.10084494;stroke-miterlimit:4;stroke-dasharray:none;stroke-opacity:1" />
    <rect
       transform="translate(0,-169.99999)"
       style="opacity:1;fill:#1e88e5;fill-opacity:1;stroke:none;stroke-width:0.10084494;stroke-miterlimit:4;stroke-dasharray:none;stroke-opacity:1"
       id="rect954"
       width="15.875"
       height="5.2916665"
       x="47.625"
       y="302.29166" />
    <rect
       y="302.29166"
       x="63.5"
       height="5.2916665"
       width="15.875"
       id="rect956"
       style="opacity:1;fill:#42a5f5;fill-opacity:1;stroke:none;stroke-width:0.10084494;stroke-miterlimit:4;stroke-dasharray:none;stroke-opacity:1"
       transform="translate(0,-169.99999)" />
    <rect
       transform="translate(0,-169.99999)"
       style="opacity:1;fill:#1e88e5;fill-opacity:1;stroke:none;stroke-width:0.10084494;stroke-miterlimit:4;stroke-dasharray:none;stroke-opacity:1"
       id="rect958"
       width="15.875"
       height="5.2916665"
       x="79.375"
       y="302.29166" />
    <rect
       transform="translate(0,-169.99999)"
       y="302.29166"
       x="95.25"
       height="5.2916665"
       width="15.875"
       id="rect960"
       style="opacity:1;fill:#1e88e5;fill-opacity:1;stroke:none;stroke-width:0.10084494;stroke-miterlimit:4;stroke-dasharray:none;stroke-opacity:1" />
    <rect
       transform="translate(0,-169.99999)"
       style="opacity:1;fill:#1565c0;fill-opacity:1;stroke:none;stroke-width:0.10084494;stroke-miterlimit:4;stroke-dasharray:none;stroke-opacity:1"
       id="rect962"
       width="15.875"
       height="5.2916665"
       x="111.125"
       y="302.29166" />
    <g
       id="g1258"
       transform="scale(1.25,1)">
      <rect
         style="opacity:1;fill:#2196f3;fill-opacity:1;stroke:none;stroke-width:0.28523257;stroke-miterlimit:4;stroke-dasharray:none;stroke-opacity:1"
         id="rect1213"
         width="127"
         height="5.2916665"
         x="0"
         y="174.625" />
      <rect
         y="169.33334"
         x="0"
         height="5.2916665"
         width="63.5"
         id="rect1215"
         style="opacity:1;fill:#42a5f5;fill-opacity:1;stroke:none;stroke-width:0.20168988;stroke-miterlimit:4;stroke-dasharray:none;stroke-opacity:1" />
      <rect
         style="opacity:1;fill:#1e88e5;fill-opacity:1;stroke:none;stroke-width:0.20168988;stroke-miterlimit:4;stroke-dasharray:none;stroke-opacity:1"
         id="rect1217"
         width="63.5"
         height="5.2916665"
         x="63.5"
         y="169.33334" />
      <rect
         style="opacity:1;fill:#64b5f6;fill-opacity:1;stroke:none;stroke-width:0.14261629;stroke-miterlimit:4;stroke-dasharray:none;stroke-opacity:1"
         id="rect1219"
         width="31.75"
         height="5.2916665"
         x="0"
         y="164.04169" />
      <rect
         y="164.04169"
         x="31.75"
         height="5.2916665"
         width="31.75"
         id="rect1221"
         style="opacity:1;fill:#2196f3;fill-opacity:1;stroke:none;stroke-width:0.14261629;stroke-miterlimit:4;stroke-dasharray:none;stroke-opacity:1" />
      <rect
         y="164.04169"
         x="63.5"
         height="5.2916665"
         width="31.75"
         id="rect1223"
         style="opacity:1;fill:#2196f3;fill-opacity:1;stroke:none;stroke-width:0.14261629;stroke-miterlimit:4;stroke-dasharray:none;stroke-opacity:1" />
      <rect
         style="opacity:1;fill:#1976d2;fill-opacity:1;stroke:none;stroke-width:0.14261629;stroke-miterlimit:4;stroke-dasharray:none;stroke-opacity:1"
         id="rect1225"
         width="31.75"
         height="5.2916665"
         x="95.25"
         y="164.04169" />
      <rect
         y="158.75"
         x="0"
         height="5.2916665"
         width="15.875"
         id="rect1227"
         style="opacity:1;fill:#90caf9;fill-opacity:1;stroke:none;stroke-width:0.10084494;stroke-miterlimit:4;stroke-dasharray:none;stroke-opacity:1" />
      <rect
         style="opacity:1;fill:#42a5f5;fill-opacity:1;stroke:none;stroke-width:0.10084494;stroke-miterlimit:4;stroke-dasharray:none;stroke-opacity:1"
         id="rect1229"
         width="15.875"
         height="5.2916665"
         x="15.875"
         y="158.75" />
      <rect
         y="158.75"
         x="31.75"
         height="5.2916665"
         width="15.875"
         id="rect1231"
         style="opacity:1;fill:#42a5f5;fill-opacity:1;stroke:none;stroke-width:0.10084494;stroke-miterlimit:4;stroke-dasharray:none;stroke-opacity:1" />
      <rect
         style="opacity:1;fill:#1e88e5;fill-opacity:1;stroke:none;stroke-width:0.10084494;stroke-miterlimit:4;stroke-dasharray:none;stroke-opacity:1"
         id="rect1233"
         width="15.875"
         height="5.2916665"
         x="47.625"
         y="158.75" />
      <rect
         y="158.75"
         x="63.5"
         height="5.2916665"
         width="15.875"
         id="rect1235"
         style="opacity:1;fill:#42a5f5;fill-opacity:1;stroke:none;stroke-width:0.10084494;stroke-miterlimit:4;stroke-dasharray:none;stroke-opacity:1" />
      <rect
         style="opacity:1;fill:#1e88e5;fill-opacity:1;stroke:none;stroke-width:0.10084494;stroke-miterlimit:4;stroke-dasharray:none;stroke-opacity:1"
         id="rect1237"
         width="15.875"
         height="5.2916665"
         x="79.375"
         y="158.75" />
      <rect
         y="158.75"
         x="95.25"
         height="5.2916665"
         width="15.875"
         id="rect1239"
         style="opacity:1;fill:#1e88e5;fill-opacity:1;stroke:none;stroke-width:0.10084494;stroke-miterlimit:4;stroke-dasharray:none;stroke-opacity:1" />
      <rect
         style="opacity:1;fill:#1565c0;fill-opacity:1;stroke:none;stroke-width:0.10084494;stroke-miterlimit:4;stroke-dasharray:none;stroke-opacity:1"
         id="rect1241"
         width="15.875"
         height="5.2916665"
         x="111.125"
         y="158.75" />
    </g>
  </g>
  <g
     inkscape:groupmode="layer"
     id="layer4"
     inkscape:label="Boxes"
     style="display:none"
     sodipodi:insensitive="true">
    <rect
       style="opacity:1;fill:#bbdefb;fill-opacity:1;stroke:none;stroke-width:0.15509106;stroke-miterlimit:4;stroke-dasharray:none;stroke-opacity:1"
       id="rect922"
       width="26.458334"
       height="5.2916665"
       x="66.145836"
       y="23.812511" />
    <rect
       y="42.333336"
       x="13.229166"
       height="5.2916665"
       width="52.916668"
       id="rect924"
       style="opacity:1;fill:#bbdefb;fill-opacity:1;stroke:none;stroke-width:0.21933188;stroke-miterlimit:4;stroke-dasharray:none;stroke-opacity:1" />
    <rect
       style="opacity:1;fill:#bbdefb;fill-opacity:1;stroke:none;stroke-width:0.15509106;stroke-miterlimit:4;stroke-dasharray:none;stroke-opacity:1"
       id="rect926"
       width="26.458334"
       height="5.2916665"
       x="10.583333"
       y="60.854187" />
    <rect
       style="opacity:1;fill:#bbdefb;fill-opacity:1;stroke:none;stroke-width:0.13871767;stroke-miterlimit:4;stroke-dasharray:none;stroke-opacity:1"
       id="rect940"
       width="21.166666"
       height="5.2916665"
       x="79.375008"
       y="60.854168" />
    <rect
       style="opacity:1;fill:#bbdefb;fill-opacity:1;stroke:none;stroke-width:0.13871767;stroke-miterlimit:4;stroke-dasharray:none;stroke-opacity:1"
       id="rect936"
       width="21.166666"
       height="5.2916665"
       x="66.145836"
       y="68.791687" />
    <rect
       y="60.854187"
       x="42.333332"
       height="5.2916665"
       width="26.458334"
       id="rect930"
       style="opacity:1;fill:#bbdefb;fill-opacity:1;stroke:none;stroke-width:0.15509106;stroke-miterlimit:4;stroke-dasharray:none;stroke-opacity:1" />
    <rect
       y="68.791679"
       x="103.1875"
       height="5.2916665"
       width="26.458334"
       id="rect938"
       style="opacity:1;fill:#bbdefb;fill-opacity:1;stroke:none;stroke-width:0.15509106;stroke-miterlimit:4;stroke-dasharray:none;stroke-opacity:1" />
    <rect
       style="opacity:1;fill:#bbdefb;fill-opacity:1;stroke:none;stroke-width:0.13871765;stroke-miterlimit:4;stroke-dasharray:none;stroke-opacity:1"
       id="rect934"
       width="21.166666"
       height="5.2916665"
       x="124.35418"
       y="60.854187" />
    <rect
       y="100.54168"
       x="10.583333"
       height="5.2916665"
       width="26.458334"
       id="rect1187"
       style="opacity:1;fill:#bbdefb;fill-opacity:1;stroke:none;stroke-width:0.15509106;stroke-miterlimit:4;stroke-dasharray:none;stroke-opacity:1" />
    <rect
       style="opacity:1;fill:#bbdefb;fill-opacity:1;stroke:none;stroke-width:0.15509106;stroke-miterlimit:4;stroke-dasharray:none;stroke-opacity:1"
       id="rect1195"
       width="26.458334"
       height="5.2916665"
       x="42.333332"
       y="100.54168" />
    <rect
       y="100.54166"
       x="79.375"
       height="5.2916665"
       width="21.166666"
       id="rect1260"
       style="opacity:1;fill:#bbdefb;fill-opacity:1;stroke:none;stroke-width:0.13871767;stroke-miterlimit:4;stroke-dasharray:none;stroke-opacity:1" />
    <rect
       y="108.47917"
       x="71.4375"
       height="5.2916665"
       width="21.166666"
       id="rect1264"
       style="opacity:1;fill:#bbdefb;fill-opacity:1;stroke:none;stroke-width:0.13871767;stroke-miterlimit:4;stroke-dasharray:none;stroke-opacity:1" />
    <rect
       style="opacity:1;fill:#bbdefb;fill-opacity:1;stroke:none;stroke-width:0.15509106;stroke-miterlimit:4;stroke-dasharray:none;stroke-opacity:1"
       id="rect1266"
       width="26.458334"
       height="5.2916665"
       x="108.47916"
       y="108.47917" />
    <rect
       y="100.54168"
       x="124.35416"
       height="5.2916665"
       width="21.166666"
       id="rect1270"
       style="opacity:1;fill:#bbdefb;fill-opacity:1;stroke:none;stroke-width:0.13871765;stroke-miterlimit:4;stroke-dasharray:none;stroke-opacity:1" />
    <path
       transform="matrix(0,0.26458333,-0.54930794,0,333.07949,1.1905758)"
       inkscape:connector-curvature="0"
       inkscape:original-d="M 74.5,317.36204 V 606.36205"
       inkscape:path-effect="#path-effect220"
       id="path218"
       d="M 74.5,317.36204 V 606.36205"
       style="display:inline;fill:#9e9e9e;fill-rule:evenodd;stroke:#9e9e9e;stroke-width:2.00037408;stroke-linecap:butt;stroke-linejoin:miter;stroke-miterlimit:4;stroke-dasharray:4.00074834, 4.00074834000000035;stroke-dashoffset:0;stroke-opacity:1" />
  </g>
  <g
     inkscape:groupmode="layer"
     id="layer5"
     inkscape:label="Connector"
     style="display:inline">
    <path
       transform="matrix(0.26458333,0,0,0.01831026,59.663545,23.293202)"
       inkscape:connector-curvature="0"
       inkscape:original-d="M 74.5,317.36204 V 606.36205"
       inkscape:path-effect="#path-effect1029"
       id="path1027"
       d="M 74.5,317.36204 V 606.36205"
       style="fill:#9e9e9e;fill-rule:evenodd;stroke:#9e9e9e;stroke-width:0.99999988px;stroke-linecap:butt;stroke-linejoin:miter;stroke-opacity:1" />
    <path
       transform="matrix(0,0.26458333,-0.21056804,0,201.63152,14.816684)"
       inkscape:connector-curvature="0"
       inkscape:original-d="M 74.5,317.36204 V 606.36205"
       inkscape:path-effect="#path-effect1061"
       id="path1059"
       d="M 74.5,317.36204 V 606.36205"
       style="fill:#9e9e9e;fill-rule:evenodd;stroke:#9e9e9e;stroke-width:0.99999988px;stroke-linecap:butt;stroke-linejoin:miter;stroke-opacity:1" />
    <path
       transform="matrix(0.26458333,0,0,0.08239619,4.1010415,8.246425)"
       inkscape:connector-curvature="0"
       inkscape:original-d="M 74.5,317.36204 V 606.36205"
       inkscape:path-effect="#path-effect1077"
       id="path1075"
       d="M 74.5,317.36204 V 606.36205"
       style="fill:none;fill-rule:evenodd;stroke:#9e9e9e;stroke-width:0.99999988px;stroke-linecap:butt;stroke-linejoin:miter;stroke-opacity:1" />
    <path
       style="fill:none;fill-rule:evenodd;stroke:#9e9e9e;stroke-width:0.99999988px;stroke-linecap:butt;stroke-linejoin:miter;stroke-opacity:1"
       d="M 74.5,317.36204 V 606.36205"
       id="path1079"
       inkscape:path-effect="#path-effect1081"
       inkscape:original-d="M 74.5,317.36204 V 606.36205"
       inkscape:connector-curvature="0"
       transform="matrix(0.26458333,0,0,0.08239619,35.851047,8.2464256)" />
    <path
       style="fill:none;fill-rule:evenodd;stroke:#9e9e9e;stroke-width:0.99999988px;stroke-linecap:butt;stroke-linejoin:miter;stroke-opacity:1"
       d="M 74.5,317.36204 V 606.36205"
       id="path1083"
       inkscape:path-effect="#path-effect1085"
       inkscape:original-d="M 74.5,317.36204 V 606.36205"
       inkscape:connector-curvature="0"
       transform="matrix(0,0.26458333,-0.17394751,0,129.15538,14.816667)" />
    <path
       sodipodi:nodetypes="ccccc"
       inkscape:original-d="m 160,605.86206 -15,-4.5 3,4.5 -3,4.5 z"
       inkscape:path-effect="#path-effect1089"
       inkscape:connector-curvature="0"
       id="path1087"
       d="m 160,605.86206 -15,-4.5 3,4.5 -3,4.5 z"
       style="fill:#9e9e9e;fill-opacity:1;fill-rule:evenodd;stroke:none;stroke-width:1px;stroke-linecap:butt;stroke-linejoin:miter;stroke-opacity:1"
       transform="matrix(0,0.26458333,-0.26458333,0,184.1135,18.520849)" />
    <path
       transform="matrix(0,0.26458333,-0.26458333,0,215.86351,18.520849)"
       style="fill:#9e9e9e;fill-opacity:1;fill-rule:evenodd;stroke:none;stroke-width:1px;stroke-linecap:butt;stroke-linejoin:miter;stroke-opacity:1"
       d="m 160,605.86206 -15,-4.5 3,4.5 -3,4.5 z"
       id="path1091"
       inkscape:connector-curvature="0"
       inkscape:path-effect="#path-effect1093"
       inkscape:original-d="m 160,605.86206 -15,-4.5 3,4.5 -3,4.5 z"
       sodipodi:nodetypes="ccccc" />
    <path
       style="fill:none;fill-rule:evenodd;stroke:#9e9e9e;stroke-width:0.99999988px;stroke-linecap:butt;stroke-linejoin:miter;stroke-opacity:1"
       d="M 74.5,317.36204 V 606.36205"
       id="path1103"
       inkscape:path-effect="#path-effect1105"
       inkscape:original-d="M 74.5,317.36204 V 606.36205"
       inkscape:connector-curvature="0"
       transform="matrix(0.26458333,0,0,0.08239619,75.538545,8.2464256)" />
    <path
       transform="matrix(0,0.26458333,-0.26458333,0,255.551,18.520849)"
       style="fill:#9e9e9e;fill-opacity:1;fill-rule:evenodd;stroke:none;stroke-width:1px;stroke-linecap:butt;stroke-linejoin:miter;stroke-opacity:1"
       d="m 160,605.86206 -15,-4.5 3,4.5 -3,4.5 z"
       id="path1115"
       inkscape:connector-curvature="0"
       inkscape:path-effect="#path-effect1117"
       inkscape:original-d="m 160,605.86206 -15,-4.5 3,4.5 -3,4.5 z"
       sodipodi:nodetypes="ccccc" />
    <path
       transform="matrix(0.26458333,0,0,0.08239619,115.22613,8.24641)"
       inkscape:connector-curvature="0"
       inkscape:original-d="M 74.5,317.36204 V 606.36205"
       inkscape:path-effect="#path-effect1125"
       id="path1123"
       d="M 74.5,317.36204 V 606.36205"
       style="fill:none;fill-rule:evenodd;stroke:#9e9e9e;stroke-width:0.99999988px;stroke-linecap:butt;stroke-linejoin:miter;stroke-opacity:1" />
    <path
       sodipodi:nodetypes="ccccc"
       inkscape:original-d="m 160,605.86206 -15,-4.5 3,4.5 -3,4.5 z"
       inkscape:path-effect="#path-effect1145"
       inkscape:connector-curvature="0"
       id="path1143"
       d="m 160,605.86206 -15,-4.5 3,4.5 -3,4.5 z"
       style="fill:#9e9e9e;fill-opacity:1;fill-rule:evenodd;stroke:none;stroke-width:1px;stroke-linecap:butt;stroke-linejoin:miter;stroke-opacity:1"
       transform="matrix(0,0.26458333,-0.26458333,0,295.23859,18.520837)" />
    <path
       transform="matrix(0.26341725,0,0,0.10986159,54.528703,-0.47004997)"
       inkscape:connector-curvature="0"
       inkscape:original-d="M 74.5,317.36204 V 606.36205"
       inkscape:path-effect="#path-effect1149"
       id="path1147"
       d="M 74.5,317.36204 V 606.36205"
       style="fill:none;fill-rule:evenodd;stroke:#9e9e9e;stroke-width:0.99999988px;stroke-linecap:butt;stroke-linejoin:miter;stroke-opacity:1" />
    <path
       style="fill:none;fill-rule:evenodd;stroke:#9e9e9e;stroke-width:0.99999988px;stroke-linecap:butt;stroke-linejoin:miter;stroke-opacity:1"
       d="M 74.5,317.36204 V 606.36205"
       id="path1151"
       inkscape:path-effect="#path-effect1153"
       inkscape:original-d="M 74.5,317.36204 V 606.36205"
       inkscape:connector-curvature="0"
       transform="matrix(0.26341725,0,0,0.10986159,91.430453,-0.47004961)" />
    <path
       sodipodi:nodetypes="ccccc"
       inkscape:original-d="m 160,605.86206 -15,-4.5 3,4.5 -3,4.5 z"
       inkscape:path-effect="#path-effect1161"
       inkscape:connector-curvature="0"
       id="path1159"
       d="m 160,605.86206 -15,-4.5 3,4.5 -3,4.5 z"
       style="fill:#9e9e9e;fill-opacity:1;fill-rule:evenodd;stroke:none;stroke-width:1px;stroke-linecap:butt;stroke-linejoin:miter;stroke-opacity:1"
       transform="matrix(0,0.26458333,-0.26458333,0,234.38432,26.458349)" />
    <path
       transform="matrix(0,0.26458333,-0.26458333,0,271.42602,26.458349)"
       style="fill:#9e9e9e;fill-opacity:1;fill-rule:evenodd;stroke:none;stroke-width:1px;stroke-linecap:butt;stroke-linejoin:miter;stroke-opacity:1"
       d="m 160,605.86206 -15,-4.5 3,4.5 -3,4.5 z"
       id="path1163"
       inkscape:connector-curvature="0"
       inkscape:path-effect="#path-effect1165"
       inkscape:original-d="m 160,605.86206 -15,-4.5 3,4.5 -3,4.5 z"
       sodipodi:nodetypes="ccccc" />
    <path
       style="fill:#9e9e9e;fill-rule:evenodd;stroke:#9e9e9e;stroke-width:2.00037408;stroke-linecap:butt;stroke-linejoin:miter;stroke-miterlimit:4;stroke-dasharray:4.00074834, 4.00074834;stroke-dashoffset:0;stroke-opacity:1"
       d="M 74.5,317.36204 V 606.36205"
       id="path1183"
       inkscape:path-effect="#path-effect1185"
       inkscape:original-d="M 74.5,317.36204 V 606.36205"
       inkscape:connector-curvature="0"
       transform="matrix(0,0.26458333,-0.54930794,0,333.07949,67.336424)" />
    <path
       sodipodi:nodetypes="ccccc"
       inkscape:original-d="m 160,605.86206 -15,-4.5 3,4.5 -3,4.5 z"
       inkscape:path-effect="#path-effect1286"
       inkscape:connector-curvature="0"
       id="path1284"
       d="m 160,605.86206 -15,-4.5 3,4.5 -3,4.5 z"
       style="fill:#9e9e9e;fill-opacity:1;fill-rule:evenodd;stroke:none;stroke-width:1px;stroke-linecap:butt;stroke-linejoin:miter;stroke-opacity:1"
       transform="matrix(0,0.26458333,-0.26458333,0,295.23859,58.208353)" />
    <path
       transform="matrix(0,0.26458333,-0.26458333,0,234.38432,66.145852)"
       style="fill:#9e9e9e;fill-opacity:1;fill-rule:evenodd;stroke:none;stroke-width:1px;stroke-linecap:butt;stroke-linejoin:miter;stroke-opacity:1"
       d="m 160,605.86206 -15,-4.5 3,4.5 -3,4.5 z"
       id="path1292"
       inkscape:connector-curvature="0"
       inkscape:path-effect="#path-effect1294"
       inkscape:original-d="m 160,605.86206 -15,-4.5 3,4.5 -3,4.5 z"
       sodipodi:nodetypes="ccccc" />
    <path
       sodipodi:nodetypes="ccccc"
       inkscape:original-d="m 160,605.86206 -15,-4.5 3,4.5 -3,4.5 z"
       inkscape:path-effect="#path-effect1298"
       inkscape:connector-curvature="0"
       id="path1296"
       d="m 160,605.86206 -15,-4.5 3,4.5 -3,4.5 z"
       style="fill:#9e9e9e;fill-opacity:1;fill-rule:evenodd;stroke:none;stroke-width:1px;stroke-linecap:butt;stroke-linejoin:miter;stroke-opacity:1"
       transform="matrix(0,0.26458333,-0.26458333,0,271.42602,66.145852)" />
    <path
       transform="matrix(0,0.26458333,-0.26458333,0,184.1135,58.208346)"
       style="fill:#9e9e9e;fill-opacity:1;fill-rule:evenodd;stroke:none;stroke-width:1px;stroke-linecap:butt;stroke-linejoin:miter;stroke-opacity:1"
       d="m 160,605.86206 -15,-4.5 3,4.5 -3,4.5 z"
       id="path1324"
       inkscape:connector-curvature="0"
       inkscape:path-effect="#path-effect1326"
       inkscape:original-d="m 160,605.86206 -15,-4.5 3,4.5 -3,4.5 z"
       sodipodi:nodetypes="ccccc" />
    <path
       sodipodi:nodetypes="ccccc"
       inkscape:original-d="m 160,605.86206 -15,-4.5 3,4.5 -3,4.5 z"
       inkscape:path-effect="#path-effect1330"
       inkscape:connector-curvature="0"
       id="path1328"
       d="m 160,605.86206 -15,-4.5 3,4.5 -3,4.5 z"
       style="fill:#9e9e9e;fill-opacity:1;fill-rule:evenodd;stroke:none;stroke-width:1px;stroke-linecap:butt;stroke-linejoin:miter;stroke-opacity:1"
       transform="matrix(0,0.26458333,-0.26458333,0,215.86351,58.208346)" />
    <path
       sodipodi:nodetypes="ccccc"
       inkscape:original-d="m 160,605.86206 -15,-4.5 3,4.5 -3,4.5 z"
       inkscape:path-effect="#path-effect1334"
       inkscape:connector-curvature="0"
       id="path1332"
       d="m 160,605.86206 -15,-4.5 3,4.5 -3,4.5 z"
       style="fill:#9e9e9e;fill-opacity:1;fill-rule:evenodd;stroke:none;stroke-width:1px;stroke-linecap:butt;stroke-linejoin:miter;stroke-opacity:1"
       transform="matrix(0,0.26458333,-0.26458333,0,256.87391,58.208346)" />
    <path
       style="fill:none;fill-rule:evenodd;stroke:#9e9e9e;stroke-width:1.55188048;stroke-linecap:butt;stroke-linejoin:miter;stroke-miterlimit:4;stroke-dasharray:4.65564125, 4.65564125;stroke-dashoffset:0;stroke-opacity:1"
       d="M 74.5,317.36204 V 606.36205"
       id="path1340"
       inkscape:path-effect="#path-effect1342"
       inkscape:original-d="M 74.5,317.36204 V 606.36205"
       inkscape:connector-curvature="0"
       transform="matrix(0.26458333,0,0,0.10986159,4.1010415,31.279946)" />
    <path
       transform="matrix(0.26458333,0,0,0.10986159,35.851047,31.279946)"
       inkscape:connector-curvature="0"
       inkscape:original-d="M 74.5,317.36204 V 606.36205"
       inkscape:path-effect="#path-effect1346"
       id="path1344"
       d="M 74.5,317.36204 V 606.36205"
       style="fill:none;fill-rule:evenodd;stroke:#9e9e9e;stroke-width:1.55188048;stroke-linecap:butt;stroke-linejoin:miter;stroke-miterlimit:4;stroke-dasharray:4.65564125, 4.65564125;stroke-dashoffset:0;stroke-opacity:1" />
    <path
       transform="matrix(0.26458333,0,0,0.10986159,76.86146,31.279949)"
       inkscape:connector-curvature="0"
       inkscape:original-d="M 74.5,317.36204 V 606.36205"
       inkscape:path-effect="#path-effect1350"
       id="path1348"
       d="M 74.5,317.36204 V 606.36205"
       style="fill:none;fill-rule:evenodd;stroke:#9e9e9e;stroke-width:1.55188048;stroke-linecap:butt;stroke-linejoin:miter;stroke-miterlimit:4;stroke-dasharray:4.65564125, 4.65564125;stroke-dashoffset:0;stroke-opacity:1" />
    <path
       transform="matrix(0.26458333,0,0,0.10986159,115.22613,31.279947)"
       inkscape:connector-curvature="0"
       inkscape:original-d="M 74.5,317.36204 V 606.36205"
       inkscape:path-effect="#path-effect1358"
       id="path1356"
       d="M 74.5,317.36204 V 606.36205"
       style="fill:none;fill-rule:evenodd;stroke:#9e9e9e;stroke-width:1.55188048;stroke-linecap:butt;stroke-linejoin:miter;stroke-miterlimit:4;stroke-dasharray:4.65564125, 4.65564125;stroke-dashoffset:0;stroke-opacity:1" />
    <path
       style="fill:none;fill-rule:evenodd;stroke:#9e9e9e;stroke-width:1.55531156;stroke-linecap:butt;stroke-linejoin:miter;stroke-miterlimit:4;stroke-dasharray:4.66593453, 4.66593453;stroke-dashoffset:0;stroke-opacity:1"
       d="M 74.5,317.36204 V 606.36205"
       id="path1364"
       inkscape:path-effect="#path-effect1366"
       inkscape:original-d="M 74.5,317.36204 V 606.36205"
       inkscape:connector-curvature="0"
       transform="matrix(0.26341725,0,0,0.10986159,54.528703,39.217445)" />
    <path
       transform="matrix(0.26341725,0,0,0.10986159,91.430453,39.217445)"
       inkscape:connector-curvature="0"
       inkscape:original-d="M 74.5,317.36204 V 606.36205"
       inkscape:path-effect="#path-effect1370"
       id="path1368"
       d="M 74.5,317.36204 V 606.36205"
       style="fill:none;fill-rule:evenodd;stroke:#9e9e9e;stroke-width:1.55531156;stroke-linecap:butt;stroke-linejoin:miter;stroke-miterlimit:4;stroke-dasharray:4.66593453, 4.66593453;stroke-dashoffset:0;stroke-opacity:1" />
  </g>
  <g
     inkscape:label="Content"
     inkscape:groupmode="layer"
     id="layer1"
     transform="translate(0,-169.99999)">
    <text
       xml:space="preserve"
       style="font-style:normal;font-variant:normal;font-weight:500;font-stretch:normal;font-size:4.23333311px;line-height:1.25;font-family:Raleway;-inkscape-font-specification:'Raleway, Medium';font-variant-ligatures:normal;font-variant-caps:normal;font-variant-numeric:normal;font-feature-settings:normal;text-align:center;letter-spacing:0px;word-spacing:0px;writing-mode:lr-tb;text-anchor:middle;fill:#0d47a1;fill-opacity:1;stroke:none;stroke-width:0.26458332;"
       x="79.213562"
       y="198.18555"
       id="text31"><tspan
         sodipodi:role="line"
         id="tspan856"
         x="79.213562"
         y="198.18555">base.njk</tspan></text>
    <text
       xml:space="preserve"
       style="font-style:normal;font-variant:normal;font-weight:500;font-stretch:normal;font-size:4.23333311px;line-height:1.25;font-family:Raleway;-inkscape-font-specification:'Raleway, Medium';font-variant-ligatures:normal;font-variant-caps:normal;font-variant-numeric:normal;font-feature-settings:normal;text-align:center;letter-spacing:0px;word-spacing:0px;writing-mode:lr-tb;text-anchor:middle;fill:#0d47a1;fill-opacity:1;stroke:none;stroke-width:0.26458332"
       x="23.649672"
       y="235.04448"
       id="text876"><tspan
         sodipodi:role="line"
         id="tspan878"
         x="23.649672"
         y="235.04448">page.njk</tspan></text>
    <text
       id="text882"
       y="235.04448"
       x="55.39967"
       style="font-style:normal;font-variant:normal;font-weight:500;font-stretch:normal;font-size:4.23333311px;line-height:1.25;font-family:Raleway;-inkscape-font-specification:'Raleway, Medium';font-variant-ligatures:normal;font-variant-caps:normal;font-variant-numeric:normal;font-feature-settings:normal;text-align:center;letter-spacing:0px;word-spacing:0px;writing-mode:lr-tb;text-anchor:middle;fill:#0d47a1;fill-opacity:1;stroke:none;stroke-width:0.26458332"
       xml:space="preserve"><tspan
         sodipodi:role="line"
         id="tspan884"
         x="55.39967"
         y="235.04448">post.njk</tspan></text>
    <text
       id="text888"
       y="235.04448"
       x="92.441338"
       style="font-style:normal;font-variant:normal;font-weight:500;font-stretch:normal;font-size:4.23333311px;line-height:1.25;font-family:Raleway;-inkscape-font-specification:'Raleway, Medium';font-variant-ligatures:normal;font-variant-caps:normal;font-variant-numeric:normal;font-feature-settings:normal;text-align:center;letter-spacing:0px;word-spacing:0px;writing-mode:lr-tb;text-anchor:middle;fill:#0d47a1;fill-opacity:1;stroke:none;stroke-width:0.26458332"
       xml:space="preserve"><tspan
         sodipodi:role="line"
         id="tspan894"
         x="92.441338"
         y="235.04448">archive.njk</tspan></text>
    <text
       xml:space="preserve"
       style="font-style:normal;font-variant:normal;font-weight:500;font-stretch:normal;font-size:4.23333311px;line-height:1.25;font-family:Raleway;-inkscape-font-specification:'Raleway, Medium';font-variant-ligatures:normal;font-variant-caps:normal;font-variant-numeric:normal;font-feature-settings:normal;text-align:center;letter-spacing:0px;word-spacing:0px;writing-mode:lr-tb;text-anchor:middle;fill:#0d47a1;fill-opacity:1;stroke:none;stroke-width:0.26458332"
       x="76.566383"
       y="242.98198"
       id="text900"><tspan
         sodipodi:role="line"
         id="tspan906"
         x="76.566383"
         y="242.98198">tags.njk</tspan></text>
    <text
       id="text904"
       y="242.98198"
       x="116.25384"
       style="font-style:normal;font-variant:normal;font-weight:500;font-stretch:normal;font-size:4.23333311px;line-height:1.25;font-family:Raleway;-inkscape-font-specification:'Raleway, Medium';font-variant-ligatures:normal;font-variant-caps:normal;font-variant-numeric:normal;font-feature-settings:normal;text-align:center;letter-spacing:0px;word-spacing:0px;writing-mode:lr-tb;text-anchor:middle;fill:#0d47a1;fill-opacity:1;stroke:none;stroke-width:0.26458332"
       xml:space="preserve"><tspan
         sodipodi:role="line"
         id="tspan908"
         x="116.25384"
         y="242.98198">tag-name.njk</tspan></text>
    <text
       id="text912"
       y="235.04446"
       x="134.79803"
       style="font-style:normal;font-variant:normal;font-weight:500;font-stretch:normal;font-size:4.23333311px;line-height:1.25;font-family:Raleway;-inkscape-font-specification:'Raleway, Medium';font-variant-ligatures:normal;font-variant-caps:normal;font-variant-numeric:normal;font-feature-settings:normal;text-align:center;letter-spacing:0px;word-spacing:0px;writing-mode:lr-tb;text-anchor:middle;fill:#0d47a1;fill-opacity:1;stroke:none;stroke-width:0.26458332"
       xml:space="preserve"><tspan
         sodipodi:role="line"
         id="tspan944"
         x="134.79803"
         y="235.04446">home.njk</tspan></text>
    <rect
       y="194.34166"
       x="0"
       height="5.2916665"
       width="26.458334"
       id="rect1167"
       style="display:inline;opacity:1;fill:#64b5f6;fill-opacity:1;stroke:none;stroke-width:0.15509106;stroke-miterlimit:4;stroke-dasharray:none;stroke-opacity:1" />
    <text
       id="text1171"
       y="198.18555"
       x="2.2859995"
       style="font-style:normal;font-variant:normal;font-weight:bold;font-stretch:normal;font-size:4.23333311px;line-height:1.25;font-family:Raleway;-inkscape-font-specification:'Raleway, Bold';font-variant-ligatures:normal;font-variant-caps:normal;font-variant-numeric:normal;font-feature-settings:normal;text-align:start;letter-spacing:0px;word-spacing:0px;writing-mode:lr-tb;text-anchor:start;fill:#000000;fill-opacity:1;stroke:none;stroke-width:0.26458332"
       xml:space="preserve"><tspan
         sodipodi:role="line"
         id="tspan1173"
         x="2.2859995"
         y="198.18555">Layout</tspan></text>
    <rect
       style="display:inline;opacity:1;fill:#81c784;fill-opacity:1;stroke:none;stroke-width:0.15509106;stroke-miterlimit:4;stroke-dasharray:none;stroke-opacity:1"
       id="rect1175"
       width="26.458334"
       height="5.2916665"
       x="0"
       y="281.65414" />
    <text
       xml:space="preserve"
       style="font-style:normal;font-variant:normal;font-weight:bold;font-stretch:normal;font-size:4.23333311px;line-height:1.25;font-family:Raleway;-inkscape-font-specification:'Raleway, Bold';font-variant-ligatures:normal;font-variant-caps:normal;font-variant-numeric:normal;font-feature-settings:normal;text-align:start;letter-spacing:0px;word-spacing:0px;writing-mode:lr-tb;text-anchor:start;fill:#000000;fill-opacity:1;stroke:none;stroke-width:0.26458332;"
       x="2.2859995"
       y="285.49805"
       id="text1179"><tspan
         sodipodi:role="line"
         id="tspan1181"
         x="2.2859995"
         y="285.49805">Content</tspan></text>
    <text
       id="text1191"
       y="274.73196"
       x="23.649672"
       style="font-style:normal;font-variant:normal;font-weight:500;font-stretch:normal;font-size:4.23333311px;line-height:1.25;font-family:Raleway;-inkscape-font-specification:'Raleway, Medium';font-variant-ligatures:normal;font-variant-caps:normal;font-variant-numeric:normal;font-feature-settings:normal;text-align:center;letter-spacing:0px;word-spacing:0px;writing-mode:lr-tb;text-anchor:middle;fill:#1b5e20;fill-opacity:1;stroke:none;stroke-width:0.26458332"
       xml:space="preserve"><tspan
         sodipodi:role="line"
         id="tspan414"
         x="23.649672"
         y="274.73196">about.md</tspan></text>
    <text
       xml:space="preserve"
       style="font-style:normal;font-variant:normal;font-weight:500;font-stretch:normal;font-size:4.23333311px;line-height:1.25;font-family:Raleway;-inkscape-font-specification:'Raleway, Medium';font-variant-ligatures:normal;font-variant-caps:normal;font-variant-numeric:normal;font-feature-settings:normal;text-align:center;letter-spacing:0px;word-spacing:0px;writing-mode:lr-tb;text-anchor:middle;fill:#1b5e20;fill-opacity:1;stroke:none;stroke-width:0.26458332"
       x="55.39967"
       y="274.73196"
       id="text1199"><tspan
         sodipodi:role="line"
         id="tspan184"
         x="55.39967"
         y="274.73196">every-day.md</tspan></text>
    <text
       xml:space="preserve"
       style="font-style:normal;font-variant:normal;font-weight:500;font-stretch:normal;font-size:4.23333311px;line-height:1.25;font-family:Raleway;-inkscape-font-specification:'Raleway, Medium';font-variant-ligatures:normal;font-variant-caps:normal;font-variant-numeric:normal;font-feature-settings:normal;text-align:center;letter-spacing:0px;word-spacing:0px;writing-mode:lr-tb;text-anchor:middle;fill:#1b5e20;fill-opacity:1;stroke:none;stroke-width:0.26458332"
       x="92.441414"
       y="274.73199"
       id="text1302"><tspan
         sodipodi:role="line"
         id="tspan179"
         x="92.441414"
         y="274.73199">archive.html</tspan></text>
    <text
       id="text1310"
       y="282.66949"
       x="81.857887"
       style="font-style:normal;font-variant:normal;font-weight:500;font-stretch:normal;font-size:4.23333311px;line-height:1.25;font-family:Raleway;-inkscape-font-specification:'Raleway, Medium';font-variant-ligatures:normal;font-variant-caps:normal;font-variant-numeric:normal;font-feature-settings:normal;text-align:center;letter-spacing:0px;word-spacing:0px;writing-mode:lr-tb;text-anchor:middle;fill:#1b5e20;fill-opacity:1;stroke:none;stroke-width:0.26458332"
       xml:space="preserve"><tspan
         sodipodi:role="line"
         id="tspan1376"
         x="81.857887"
         y="282.66949">tags.html</tspan></text>
    <text
       xml:space="preserve"
       style="font-style:normal;font-variant:normal;font-weight:500;font-stretch:normal;font-size:4.23333311px;line-height:1.25;font-family:Raleway;-inkscape-font-specification:'Raleway, Medium';font-variant-ligatures:normal;font-variant-caps:normal;font-variant-numeric:normal;font-feature-settings:normal;text-align:center;letter-spacing:0px;word-spacing:0px;writing-mode:lr-tb;text-anchor:middle;fill:#1b5e20;fill-opacity:1;stroke:none;stroke-width:0.26458332"
       x="121.54552"
       y="282.66949"
       id="text1314"><tspan
         sodipodi:role="line"
         id="tspan1378"
         x="121.54552"
         y="282.66949">tag-name.html</tspan></text>
    <text
       xml:space="preserve"
       style="font-style:normal;font-variant:normal;font-weight:500;font-stretch:normal;font-size:4.23333311px;line-height:1.25;font-family:Raleway;-inkscape-font-specification:'Raleway, Medium';font-variant-ligatures:normal;font-variant-caps:normal;font-variant-numeric:normal;font-feature-settings:normal;text-align:center;letter-spacing:0px;word-spacing:0px;writing-mode:lr-tb;text-anchor:middle;fill:#1b5e20;fill-opacity:1;stroke:none;stroke-width:0.26458332"
       x="134.77477"
       y="274.73196"
       id="text1318"><tspan
         sodipodi:role="line"
         id="tspan1372"
         x="134.77477"
         y="274.73196">index.html</tspan></text>
  </g>
  <g
     inkscape:groupmode="layer"
     id="layer6"
     inkscape:label="Title">
    <text
       id="text1386"
       y="15.825615"
       x="79.21357"
       style="font-style:normal;font-variant:normal;font-weight:bold;font-stretch:normal;font-size:4.93888889px;line-height:1.25;font-family:Oswald;-inkscape-font-specification:'Oswald, Bold';font-variant-ligatures:normal;font-variant-caps:normal;font-variant-numeric:normal;font-feature-settings:normal;text-align:center;letter-spacing:0px;word-spacing:0px;writing-mode:lr;text-anchor:middle;fill:#000000;fill-opacity:1;stroke:none;stroke-width:0.26458332;"
       xml:space="preserve"><tspan
         sodipodi:role="line"
         id="tspan185">Tutor 03</tspan></text>
    <text
       xml:space="preserve"
       style="font-style:normal;font-variant:normal;font-weight:bold;font-stretch:normal;font-size:5.64444447px;line-height:1.25;font-family:Raleway;-inkscape-font-specification:'Raleway, Bold';font-variant-ligatures:normal;font-variant-caps:normal;font-variant-numeric:normal;font-feature-settings:normal;text-align:center;letter-spacing:0px;word-spacing:0px;writing-mode:lr-tb;text-anchor:middle;fill:#000000;fill-opacity:1;stroke:none;stroke-width:0.26458332"
       x="79.21357"
       y="8.0581436"
       id="text212"><tspan
         style="stroke-width:0.26458332"
         id="tspan210"
         sodipodi:role="line"
         x="79.21357"
         y="8.0581436">Template Inheritance</tspan></text>
  </g>
</svg>
